#Commands typed into terminal during Lecture 2  
  449  mkdir git_example
  450  cd git_example/
  451  ls -a
  452  git init
  453  ls -a
  454  vi scientists.txt
  455  ls
  456  git status
  457  git add scientists.txt 
  458  git status
  459  git commit -m "Initial commit with scientists.txt"
  460  cat scientists.txt 
  461  vi scientists.txt 
  462  clear
  463  git diff
  464  git status
  465  git add scientists.txt 
  466  git status
  467  git commit -m "added more scientists"
  468  git status
  469  clear
  470  git log
  471  git checkout 5943d4b35b
  472  git status
  473  cat scientists.txt 
  474  git checkout master
  475  git status
  476  cat scientists.txt 
  477  clear
  478  git add --help
  479  pwd
  480  git remote add origin https://ImperialHPSC@bitbucket.org/ImperialHPSC/git_example.git
  481  git push -u origin --all
  482  git push -u origin --tags
  483  vi scientists.txt 
  484  git staatus
  485  git status
  486  git add scientists.txt 
  487  git commit -m "even more scientists"
  488  git push origin master
  489  cd ../
  490  git clone https://prasunray@bitbucket.org/prasunray/git-example-2.git
  491  ls
  492  cd git_example2
  493  cd git-example-2/
  494  ls
  495  vi mathematicians.txt 
  496  git status
  497  git add mathematicians.txt 
  498  clear
  499  git commit -m "added people"
  500  git push origin master
  501  cd 
  502  cd Documents/repos/
  503  ls
  504  ls
  505  cd git-example-2/
  506  ls
  507  cat mathematicians.txt 
  508  ls
  509  cd ../git-example-2/
  510  ls
  511  cd ../git_example/
  512  ls
  513  cat scientists.txt 

